[{
  "_id": {
    "$oid": "60c74aa6e6e3f554c4d12ed3"
  },
  "username": "jack",
  "text": "This is a great tutorial.",
  "createdAt": {
    "$date": "2021-06-14T12:25:10.266Z"
  },
  "__v": 0
},{
  "_id": {
    "$oid": "60c74aa6e6e3f554c4d12ed4"
  },
  "username": "mary",
  "text": "Thank you, it helps me alot.",
  "createdAt": {
    "$date": "2021-06-14T12:25:10.296Z"
  },
  "__v": 0
}]